ثروتمند	7.98
برندگان	7.62
هدایا	7.56
عاشقان	7.54
دلپذیر	7.48
رویاها	7.44
خلاق	7.4
مادران	7.36
ملودی	7.35
عروسی	7.34
لوکس	7.3
آبدار	7.27
نوازندگان	7.26
فواید	7.2
luv	7.2
آرزوها	7.2
جوایز	7.18
هنری	7.12
شرکا	7.12
کوکی	7.1
عزیزترین	7.1
آزادانه	7.1
گیاهان	7.1
قدرتمند	7.08
یوگا	7.04
درختان	6.98
وانیل	6.96
دختران	6.94
تحصیلات	6.88
نوزادان	6.88
رقصنده	6.86
دریاها	6.86
فعال	6.82
هنرمندان	6.82
پدران	6.82
عجایب	6.78
خواهر	6.76
تمدن	6.72
روستاها	6.72
thanx	6.68
عکاس	6.64
داوطلبان	6.64
خواهران	6.62
استیک	6.62
دلخواه	6.6
بستگان	6.6
آماده	6.58
تمرینات	6.54
چیپس	6.5
پسرعموها	6.5
فیلمنامه	6.48
ویدئو	6.48
کالاها	6.46
چمن	6.46
بالاتر	6.46
مومن	6.46
شاعران	6.46
رضایتبخش	6.44
معلمان	6.44
چشمک	6.44
شراکت	6.42
پرتره	6.42
طراحان	6.38
نقره	6.38
مزارع	6.36
علاقه	6.36
mp3	6.36
داوطلب	6.36
استودیو	6.34
bbq	6.32
طراح	6.32
تجربیات	6.32
rofl	6.32
نویسندگان	6.32
اتصالات	6.31
دیسکو	6.28
کارشناسان	6.28
خدایان	6.26
gr8	6.26
mmmm	6.26
مناسبت	6.26
بولینگ	6.24
نکته	6.24
xbox	6.24
معانی	6.22
بزرگ	6.22
پنبه	6.22
اکثر	6.22
مشارکت	6.22
اجتماعی	6.22
حامیان	6.2
www	6.18
پسران	6.16
بسکتبال	6.14
مرورگر	6.14
میهمانان	6.14
هزاران	6.14
ربات	6.12
wii	6.12
پرستاران	6.1
پنجره	6.1
bff	6.08
سرنخ	6.08
گردشگران	6.08
بزرگسالان	6.06
آیکون	6.06
پاها	6.06
مجلات	6.06
آشپزخانه	6.04
کاناپه	6.04
xp	6.04
ملاحظات	6.02
هفدهم	6.02
مفاهیم	6.02
مهندسین	6.02
کاملا	6.02
xoxo	6.02
قاره	6.0
لطف	6.0
lmfao	6.0
http	5.98
کلیدها	5.98
nyc	5.98
مدارس	5.98
bf	5.96
mmmmm	5.96
بازیکنان	5.96
اکو	5.94
mba	5.94
گزینه	5.94
بازیکن	5.94
جوامع	5.94
thnx	5.94
ظریف	5.94
گروه	5.92
runnin	5.92
خریداران	5.9
اکنون	5.9
شخصا	5.9
نمادها	5.9
بیست	5.9
زمستان	5.9
سایبر	5.88
رشته	5.88
باسن	5.88
رهبران	5.88
lmaooo	5.88
محققین	5.88
مقالات	5.86
آزادراه	5.86
لنز	5.86
مشاهدات	5.86
بینندگان	5.86
چهارده	5.86
بیسبال	5.84
دسکتاپ	5.84
ماتریس	5.84
پوستر	5.84
کفش	5.84
گاو	5.82
دارند	5.82
woot	5.82
حرکات	5.82
لیبرال	5.8
lmao	5.8
اغلب	5.8
پادکست	5.8
ebay	5.78
hd	5.78
روستایی	5.78
شاتل	5.78
ps3	5.76
نژاد	5.76
ریمیکس	5.76
اسلاید	5.76
gf	5.74
نام	5.74
صاحبان	5.74
پودر	5.74
لاغر	5.74
apt	5.72
dvr	5.72
مسافران	5.72
اسکریپت	5.72
بنر	5.7
mmm	5.7
سنتز	5.7
xo	5.7
لوگو	5.68
جنبه	5.66
تولید	5.66
رول	5.66
ac	5.64
کیت	5.64
بارانی	5.64
سکولار	5.64
espn	5.62
مجازی	5.62
مراکز	5.6
عظیم	5.6
cara	5.58
شهرها	5.58
تصمیمات	5.58
انگشتان	5.58
hier	5.58
elle	5.56
پرید	5.56
عناوین	5.56
صداها	5.56
ny	5.54
پانل	5.54
ppl	5.54
گرافیکی	5.52
nbc	5.52
اتاق	5.52
تریلر	5.52
اثرات	5.5
fm	5.5
مکررا	5.5
دوید	5.5
ستون	5.48
fb	5.48
ikea	5.48
پرش	5.48
مختلط	5.48
ole	5.48
کاربران	5.48
vamos	5.48
سقف	5.47
متابولیسم	5.47
انتظارات	5.46
محلی	5.46
اطراف	5.46
توییتر	5.46
متعاقب	5.45
جرم	5.44
ارسال	5.44
همچنین	5.42
com	5.42
مینی	5.42
ماهانه	5.42
om	5.42
snl	5.42
تئوری	5.42
پیکربندی	5.42
ساکنان	5.42
تعاریف	5.4
وزرا	5.4
فرآیندها	5.4
سوشی	5.4
xxx	5.4
گفت	5.38
سربازان	5.38
استانداردها	5.38
کلیپ	5.36
قراردادها	5.36
lmaoo	5.36
monde	5.36
msn	5.36
nba	5.36
quiero	5.36
si	5.36
ایستاده	5.36
جلیقه	5.36
wi	5.36
مناطق	5.34
ay	5.34
ily	5.34
mc	5.34
nog	5.34
نرخ	5.34
tmrw	5.34
آستانه	5.33
متوسط	5.32
مذاکرات	5.32
نوزدهم	5.32
pa	5.32
سایت	5.32
هشت	5.3
jk	5.3
md	5.3
عدد	5.3
پچ	5.3
کد	5.28
cuore	5.28
etsy	5.28
نمایندگان	5.28
اسرار	5.28
آژانس	5.26
خطوط	5.26
nc	5.26
چاپ	5.26
دلایل	5.26
واحدها	5.26
abc	5.24
رانندگان	5.24
pon	5.24
sf	5.24
txt	5.24
veux	5.24
اعماق	5.22
قالیچه	5.22
como	5.22
dems	5.22
فایل	5.22
مهاجران	5.22
پمپ	5.22
هم	5.22
jetzt	5.2
لابی	5.2
اشیاء	5.2
پزشکان	5.2
ph	5.18
cnn	5.18
انتخابات	5.18
mt	5.18
نهم	5.18
pac	5.18
ra	5.18
خبرنگاران	5.18
doet	5.16
هستند	5.16
cuomo	5.16
dos	5.16
ds	5.16
fuego	5.16
lt	5.16
nfl	5.16
جمعیت	5.16
verizon	5.16
ing	5.15
a1	5.14
poi	5.14
coro	5.12
creo	5.12
ncaa	5.12
تنها	5.12
ty	5.12
viii	5.12
xx	5.12
conmigo	5.1
مکث	5.1
et	5.1
ff	5.1
ian	5.1
jb	5.1
nhl	5.1
dmc	5.08
az	5.08
کارخانه	5.08
manhasset	5.08
pls	5.08
ترانزیت	5.08
زیرزمینی	5.08
z	5.08
komt	5.06
mientras	5.06
atl	5.06
gb	5.06
ihn	5.06
مصاحبه	5.06
mj	5.06
nel	5.06
poder	5.06
اولیه	5.06
td	5.06
tx	5.06
voy	5.06
vuoi	5.06
avec	5.05
voz	5.04
aqui	5.04
bbm	5.04
استخوان	5.04
fue	5.04
j	5.04
معیارهای	5.04
ps	5.04
rss	5.04
س	5.04
آمار	5.04
ves	5.04
adesso	5.02
veo	5.02
c-net	5.02
اسناد	5.02
esse	5.02
ii	5.02
mismo	5.02
pr	5.02
rc	5.02
sc	5.02
vp	5.02
alguien	5.0
b-net	5.0
coeur	5.0
das	5.0
ku	5.0
دفاتر	5.0
quero	5.0
سوالات	5.0
tp	5.0
vid	5.0
voglio	5.0
zu	5.0
bei	4.98
btw	4.98
d8	4.98
een	4.98
io	4.98
mij	4.98
nw	4.98
ogni	4.98
الزامات	4.98
sumthin	4.98
pp	4.98
aku	4.96
cbs	4.96
fe	4.96
fone	4.96
frm	4.96
ist	4.96
ko	4.96
nxt	4.96
o	4.96
op-ed	4.96
schon	4.96
sein	4.96
ufc	4.96
ur	4.96
vi	4.96
yorker	4.96
veces	4.96
[a1]	4.94
av	4.94
cuerpo	4.94
dm	4.94
ele	4.94
ftw	4.94
g	4.94
gw	4.94
hs	4.94
ix	4.94
شیطون	4.94
nih	4.94
رپ	4.94
una	4.94
vez	4.94
antes	4.94
dmx	4.94
xi	4.94
ojos	4.94
zie	4.94
ar	4.92
au	4.92
b6	4.92
contigo	4.92
dom	4.92
اقتصاددانان	4.92
fl	4.92
fr	4.92
itu	4.92
ni	4.92
pt	4.92
ترانس	4.92
une	4.92
var	4.92
wordt	4.92
dans	4.92
siento	4.92
ve	4.92
moi	4.91
al	4.9
brb	4.9
شارژ	4.9
dukakis	4.9
esa	4.9
gt	4.9
hpa	4.9
kt	4.9
nh	4.9
pra	4.9
ven	4.9
wer	4.9
xm	4.9
zo	4.9
deine	4.9
dre	4.9
kommt	4.9
macht	4.9
استاتیک	4.9
toi	4.9
vii	4.9
liefde	4.89
b4	4.88
bt	4.88
dentro	4.88
der	4.88
ir	4.88
rt	4.88
sei	4.88
sp	4.88
qui	4.88
ap	4.86
bb	4.86
bk	4.86
cia	4.86
تقسیمات	4.86
echt	4.86
ira	4.86
jst	4.86
mijn	4.86
og	4.86
recuerdo	4.86
حساس	4.86
sr	4.86
vor	4.86
vt	4.86
w	4.86
ze	4.86
soc	4.86
miedo	4.85
abt	4.84
b7	4.84
d1	4.84
en	4.84
est	4.84
hm	4.84
ht	4.84
نامرئی	4.84
jd	4.84
ke	4.84
nt	4.84
o_o	4.84
proc	4.84
sta	4.84
vc	4.84
ang	4.82
att	4.82
ayer	4.82
b2	4.82
de	4.82
doch	4.82
وظایف	4.82
eso	4.82
ll	4.82
n	4.82
ng	4.82
ot	4.82
pst	4.82
sich	4.82
tt	4.82
wut	4.82
dro	4.82
sus	4.82
werden	4.82
otro	4.81
ak	4.8
ao	4.8
bij	4.8
c1	4.8
det	4.8
el	4.8
es	4.8
lejos	4.8
جلسات	4.8
nd	4.8
wij	4.79
1/2-حمام	4.78
b1	4.78
des	4.78
dha	4.78
ep	4.78
gat	4.78
gli	4.78
llorar	4.78
r	4.78
tht	4.78
tijd	4.78
buat	4.76
cnt	4.76
coz	4.76
gd	4.76
les	4.76
quand	4.76
sa	4.76
tem	4.76
پوشید	4.76
xd	4.76
af	4.76
ihr	4.76
niente	4.76
fml	4.74
معادن	4.74
muito	4.74
quem	4.74
smh	4.74
zijn	4.74
a3	4.72
ct	4.72
پزشکی	4.72
ei	4.71
komm	4.71
cos	4.7
جز	4.7
gue	4.7
isso	4.7
los	4.7
wth	4.7
uns	4.69
ba	4.68
چاقوها	4.68
op	4.68
pq	4.68
qtr	4.68
uu	4.68
wereld	4.68
bg	4.67
iz	4.66
جزئی	4.66
quisiera	4.66
seu	4.66
v	4.66
mek	4.65
b3	4.64
f	4.64
hv	4.64
ini	4.64
kijk	4.64
nj	4.64
que	4.64
un	4.64
geht	4.63
zij	4.63
altijd	4.62
ib	4.61
ik	4.6
jg	4.6
mal	4.6
nme	4.6
تعهد	4.6
q	4.6
تنگ	4.6
aan	4.58
als	4.58
bgt	4.58
cit	4.58
gtgt	4.58
lls	4.58
auf	4.56
بوکس	4.56
queda	4.56
yg	4.56
gaat	4.55
er	4.54
hw	4.54
مقررات	4.54
rs	4.54
پیچش	4.54
muss	4.52
omfg	4.52
und	4.52
پروب	4.5
y	4.48
cus	4.4
کویر	4.4
دور	4.38
adios	4.34
eff	4.32
fbi	4.32
سابق	4.3
ich	4.3
idk	4.28
il	4.28
fck	4.26
وکلا	4.26
sht	4.26
bah	4.24
سفارشات	4.24
وتو	4.22
wtf	4.22
dnt	4.2
grrr	4.2
پیچ	4.2
رئیس	4.18
نیروها	4.18
grr	4.18
کوسه	4.14
بی‌حس	4.1
ترش	4.06
تست	4.06
سردتر	4.04
ضربه	3.96
مسلح	3.84
ارواح	3.84
مزمن	3.79
امتحانات	3.78
کمتر	3.72
بیماران	3.66
متاسف	3.66
مارها	3.65
اسید	3.59
پارانوئید	3.5
مخالفان	3.48
زامبی	3.48
آشوب	3.46
zit	3.41
تسلیت	3.4
سندرم	3.36
بغرنج	3.34
سیاستمداران	3.34
گناهکاران	3.18
جنگید	3.1
تابوت	2.96
اشتباهات	2.92
تهدیدها	2.88
گناهان	2.88
پنالتی	2.84
معلول	2.82
حسود	2.68
دروغ	2.6
نابینا	2.58
ترسیده	2.58
دشمنان	2.44
تصادف	2.32
قربانیان	2.32
سونامی	2.18
بمیر	1.74
تروریسم	1.48
تروریست	1.3
ncov19	1.84
#ثروتمند	7.98
#مامان	7.64
#برندگان	7.62
#عاشقان	7.54
#دلپذیر	7.48
#رویاها	7.44
#خلاق	7.4
#مادران	7.36
#ملودی	7.35
#عروسی	7.34
#لوکس	7.3
#آبدار	7.27
#نوازندگان	7.26
#فواید	7.2
#google	7.2
#آرزوها	7.2
#جوایز	7.18
#هنری	7.12
#کوکی	7.1
#عزیزترین	7.1
#آزادانه	7.1
#گیاهان	7.1
#قدرتمند	7.08
#یوگا	7.04
#درختان	6.98
#وانیل	6.96
#دختران	6.94
#تحصیلات	6.88
#مونث	6.88
#نوزادان	6.88
#رقصنده	6.86
#دریاها	6.86
#فعال	6.82
#هنرمندان	6.82
#عجایب	6.78
#خواهر	6.76
#تمدن	6.72
#روستاها	6.72
#dvd	6.66
#عکاس	6.64
#داوطلبان	6.64
#خواهران	6.62
#استیک	6.62
#مبله	6.6
#دلخواه	6.6
#بستگان	6.6
#خوانندگان	6.6
#آماده	6.58
#تمرینات	6.54
#چیپس	6.5
#ipad	6.5
#فیلمنامه	6.48
#ویدئو	6.48
#چمن	6.46
#بالاتر	6.46
#مومن	6.46
#شاعران	6.46
#رضایتبخش	6.44
#معلمان	6.44
#چشمک	6.44
#چت	6.42
#شراکت	6.42
#پرتره	6.42
#gmail	6.4
#طراحان	6.38
#نقره	6.38
#مزارع	6.36
#علاقه	6.36
#داوطلب	6.36
#استودیو	6.34
#bbq	6.32
#طراح	6.32
#تجربیات	6.32
#نویسندگان	6.32
#اتصالات	6.31
#سوت	6.31
#دیسکو	6.28
#متخصصان	6.28
#خدایان	6.26
#mmmm	6.26
#مناسبت	6.26
#بولینگ	6.24
#نکته	6.24
#xbox	6.24
#معانی	6.22
#بزرگ	6.22
#پنبه	6.22
#اکثر	6.22
#مشارکت	6.22
#اجتماعی	6.22
#حامیان	6.2
#گردشگر	6.18
#www	6.18
#پسران	6.16
#بسکتبال	6.14
#مرورگر	6.14
#میهمانان	6.14
#هزاران	6.14
#ربات	6.12
#wii	6.12
#پرستاران	6.1
#پنجره	6.1
#bff	6.08
#سرنخ	6.08
#گردشگران	6.08
#بزرگسالان	6.06
#آیکون	6.06
#پاها	6.06
#آشپزخانه	6.04
#کاناپه	6.04
#xp	6.04
#ملاحظات	6.02
#هفدهم	6.02
#مفاهیم	6.02
#کاملا	6.02
#xoxo	6.02
#bien	6.0
#قاره	6.0
#لطف	6.0
#نورپردازی	6.0
#lmfao	6.0
#معنا	6.0
#http	5.98
#کلیدها	5.98
#nyc	5.98
#مدارس	5.98
#bf	5.96
#بازیکنان	5.96
#mba	5.94
#گزینه	5.94
#بازیکن	5.94
#جوامع	5.94
#thnx	5.94
#ظریف	5.94
#گروه	5.92
#viva	5.92
#خریداران	5.9
#lolz	5.9
#اکنون	5.9
#نمرات	5.9
#نمادها	5.9
#بیست	5.9
#زمستان	5.9
#دسترسی	5.88
#سایبری	5.88
#رشته	5.88
#رهبران	5.88
#محققان	5.88
#مقالات	5.86
#آزادراه	5.86
#مشاهدات	5.86
#بینندگان	5.86
#چهارده	5.86
#بیسبال	5.84
#دسکتاپ	5.84
#ماتریس	5.84
#پوستر	5.84
#کفش	5.84
#گاو	5.82
#دارند	5.82
#حرکات	5.82
#لیبرال	5.8
#اغلب	5.8
#پادکست	5.8
#vivo	5.8
#ebay	5.78
#hd	5.78
#روستایی	5.78
#شاتل	5.78
#ریمیکس	5.76
#اسلاید	5.76
#gf	5.74
#نام	5.74
#پودر	5.74
#لاغر	5.74
#dvr	5.72
#مسافران	5.72
#اسکریپت	5.72
#بنر	5.7
#سنتز	5.7
#wassup	5.7
#xo	5.7
#لوگو	5.68
#جنبه	5.66
#gps	5.66
#تولید	5.66
#رول	5.66
#ac	5.64
#inning	5.64
#کیت	5.64
#mtv	5.64
#بارانی	5.64
#سکولار	5.64
#espn	5.62
#vday	5.62
#مجازی	5.62
#مراکز	5.6
#عظیم	5.6
#شهرها	5.58
#تصمیمات	5.58
#hier	5.58
#ibm	5.58
#پرید	5.56
#عناوین	5.56
#صداها	5.56
#ny	5.54
#پانل	5.54
#ppl	5.54
#nbc	5.52
#اتاق	5.52
#تریلر	5.52
#u	5.52
#url	5.52
#اثرات	5.5
#fm	5.5
#مکررا	5.5
#leven	5.5
#دوید	5.5
#ستون	5.48
#fb	5.48
#ikea	5.48
#پرش	5.48
#کاربران	5.48
#vamos	5.48
#سقف	5.47
#متابولیسم	5.47
#انتظارات	5.46
#محلی	5.46
#اطراف	5.46
#توییتر	5.46
#متعاقب	5.45
#جرم	5.44
#ارسال	5.44
#همچنین	5.42
#com	5.42
#مینی	5.42
#ماهانه	5.42
#snl	5.42
#تئوری	5.42
#پیکربندی	5.42
#ساکنان	5.42
#تعاریف	5.4
#dna	5.4
#وزرا	5.4
#فرایندها	5.4
#riverdale	5.4
#سوشی	5.4
#xxx	5.4
#hp	5.38
#mit	5.38
#گفت	5.38
#سربازان	5.38
#استانداردها	5.38
#کلیپ	5.36
#قراردادها	5.36
#msn	5.36
#nba	5.36
#ایستاده	5.36
#tres	5.36
#جلیقه	5.36
#wi	5.36
#مناطق	5.34
#نوشید	5.34
#mc	5.34
#نرخ	5.34
#tmrw	5.34
#آستانه	5.33
#mas	5.32
#متوسط	5.32
#مذاکرات	5.32
#نوزدهم	5.32
#سایت	5.32
#alles	5.31
#vivir	5.31
#هشت	5.3
#jk	5.3
#md	5.3
#عدد	5.3
#پچ	5.3
#کد	5.28
#cuore	5.28
#etsy	5.28
#mag	5.28
#نمایندگان	5.28
#moet	5.27
#آژانس	5.26
#خطوط	5.26
#nc	5.26
#چاپ	5.26
#دلایل	5.26
#siempre	5.26
#واحدها	5.26
#abc	5.24
#رانندگان	5.24
#sf	5.24
#toujours	5.24
#txt	5.24
#veux	5.24
#قالیچه	5.22
#بیو	5.22
#فایل	5.22
#مهاجران	5.22
#lg	5.22
#پمپ	5.22
#هم	5.22
#mio	5.2
#jetzt	5.2
#لابی	5.2
#اشیاء	5.2
#پزشکان	5.2
#vuelve	5.2
#yi	5.2
#ph	5.18
#cnn	5.18
#انتخابات	5.18
#مانیتور	5.18
#mt	5.18
#نهم	5.18
#pac	5.18
#خبرنگاران	5.18
#ritmo	5.18
#doet	5.16
#zeit	5.16
#هستند	5.16
#cuomo	5.16
#ds	5.16
#ed	5.16
#fuego	5.16
#lt	5.16
#nfl	5.16
#جمعیت	5.16
#verizon	5.16
#estoy	5.14
#fyi	5.14
#poi	5.14
#خیس	5.14
#creo	5.12
#ncaa	5.12
#nyt	5.12
#تنها	5.12
#ty	5.12
#viii	5.12
#xx	5.12
#مکث	5.1
#et	5.1
#ff	5.1
#jb	5.1
#nhl	5.1
#پین	5.1
#dmc	5.08
#sempre	5.08
#کارخانه	5.08
#manhasset	5.08
#soledad	5.08
#ترانزیت	5.08
#زیرزمینی	5.08
#va	5.08
#z	5.08
#komt	5.06
#mientras	5.06
#atl	5.06
#aus	5.06
#convo	5.06
#gb	5.06
#ihn	5.06
#مصاحبه	5.06
#mj	5.06
#اولیه	5.06
#td	5.06
#tx	5.06
#vuoi	5.06
#avec	5.05
#voz	5.04
#bbm	5.04
#استخوان	5.04
#hav	5.04
#j	5.04
#معیارهای	5.04
#ps	5.04
#rss	5.04
#s	5.04
#آمار	5.04
#tweetdeck	5.04
#ves	5.04
#vos	5.04
#veo	5.02
#bu	5.02
#اسناد	5.02
#esse	5.02
#estou	5.02
#ii	5.02
#nacht	5.02
#os	5.02
#pr	5.02
#rc	5.02
#sc	5.02
#tu	5.02
#vp	5.02
#alguien	5.0
#ku	5.0
#دفاتر	5.0
#quero	5.0
#سوالات	5.0
#tp	5.0
#tra	5.0
#voglio	5.0
#btw	4.98
#een	4.98
#exec	4.98
#hace	4.98
#io	4.98
#meu	4.98
#mij	4.98
#nw	4.98
#الزامات	4.98
#scarsdale	4.98
#ml	4.98
#cbs	4.96
#esto	4.96
#fe	4.96
#frm	4.96
#iii	4.96
#ko	4.96
#nxt	4.96
#o	4.96
#pero	4.96
#semana	4.96
#ufc	4.96
#ur	4.96
#vi	4.96
#yorker	4.96
#veces	4.96
#av	4.94
#cuerpo	4.94
#dm	4.94
#ele	4.94
#foi	4.94
#ftw	4.94
#g	4.94
#gw	4.94
#hs	4.94
#ix	4.94
#mesmo	4.94
#شیطون	4.94
#رپ	4.94
#tes	4.94
#ti	4.94
#una	4.94
#dmx	4.94
#questo	4.94
#xi	4.94
#ojos	4.94
#ar	4.92
#au	4.92
#dole	4.92
#اقتصاددانان	4.92
#fl	4.92
#itu	4.92
#mes	4.92
#pt	4.92
#tix	4.92
#todos	4.92
#ترانس	4.92
#twitpic	4.92
#var	4.92
#ve	4.92
#moi	4.91
#bis	4.9
#brb	4.9
#شارژ	4.9
#esa	4.9
#gt	4.9
#hpa	4.9
#kt	4.9
#nh	4.9
#te	4.9
#wer	4.9
#xm	4.9
#kommt	4.9
#macht	4.9
#استاتیک	4.9
#toi	4.9
#vii	4.9
#liefde	4.89
#bt	4.88
#der	4.88
#ir	4.88
#re	4.88
#rt	4.88
#se	4.88
#sei	4.88
#sp	4.88
#tryna	4.88
#qui	4.88
#ap	4.86
#bb	4.86
#bk	4.86
#cia	4.86
#تقسیمات	4.86
#echt	4.86
#ira	4.86
#jst	4.86
#le	4.86
#nu	4.86
#og	4.86
#recuerdo	4.86
#حساس	4.86
#sr	4.86
#vt	4.86
#w	4.86
#wie	4.86
#ze	4.86
#abt	4.84
#dats	4.84
#en	4.84
#est	4.84
#ht	4.84
#نامرئی	4.84
#jd	4.84
#ke	4.84
#nt	4.84
#o_o	4.84
#proc	4.84
#sta	4.84
#t	4.84
#vc	4.84
#ang	4.82
#de	4.82
#doch	4.82
#وظایف	4.82
#eso	4.82
#ll	4.82
#n	4.82
#ng	4.82
#ot	4.82
#pst	4.82
#tt	4.82
#werden	4.82
#otro	4.81
#ak	4.8
#ao	4.8
#eds	4.8
#es	4.8
#eu	4.8
#جلسات	4.8
#ce	4.78
#des	4.78
#dha	4.78
#ep	4.78
#fo	4.78
#je	4.78
#r	4.78
#tht	4.78
#ver	4.78
#tijd	4.78
#cnt	4.76
#coz	4.76
#dat	4.76
#ese	4.76
#gd	4.76
#por	4.76
#trippin	4.76
#پوشید	4.76
#xd	4.76
#af	4.76
#ihr	4.76
#fml	4.74
#معادن	4.74
#muito	4.74
#res	4.74
#smh	4.74
#ci	4.73
#ct	4.72
#e	4.72
#پزشکی	4.72
#ses	4.72
#ei	4.71
#cos	4.7
#جز	4.7
#inc	4.7
#wth	4.7
#iets	4.69
#uns	4.69
#ab	4.68
#چاقوها	4.68
#op	4.68
#pq	4.68
#qtr	4.68
#uu	4.68
#bg	4.67
#dicen	4.67
#جزئی	4.66
#nach	4.66
#quisiera	4.66
#seu	4.66
#v	4.66
#f	4.64
#hv	4.64
#nj	4.64
#po	4.64
#que	4.64
#un	4.64
#altijd	4.62
#ib	4.61
#dit	4.6
#ik	4.6
#jg	4.6
#nme	4.6
#nunca	4.6
#تعهد	4.6
#تنگ	4.6
#als	4.58
#bgt	4.58
#cit	4.58
#gtgt	4.58
#kom	4.58
#lls	4.58
#auf	4.56
#بوکس	4.56
#yg	4.56
#conn	4.54
#hw	4.54
#مقررات	4.54
#rs	4.54
#پیچش	4.54
#omfg	4.52
#und	4.52
#y	4.48
#ew	4.44
#گی	4.44
#کویر	4.4
#دور	4.38
#adios	4.34
#eff	4.32
#fbi	4.32
#سابق	4.3
#ich	4.3
#idk	4.28
#fck	4.26
#وکلا	4.26
#sht	4.26
#وتو	4.22
#wtf	4.22
#dnt	4.2
#grrr	4.2
#پیچ	4.2
#رئیس	4.18
#dis	4.18
#نیروها	4.18
#grr	4.18
#کوسه	4.14
#بی‌حس	4.1
#ترش	4.06
#تست	4.06
#سردتر	4.04
#ضربه	3.96
#مسلح	3.84
#ارواح	3.84
#sos	3.82
#منتقدین	3.8
#مزمن	3.79
#امتحانات	3.78
#کمتر	3.72
#بیماران	3.66
#متاسف	3.66
#مارها	3.65
#اسید	3.59
#پارانوئید	3.5
#مخالفان	3.48
#اپوزیسیون	3.48
#زامبی	3.48
#آشوب	3.46
#تسلیت	3.4
#لکه	3.39
#ممنوعه	3.36
#سندرم	3.36
#بغرنج	3.34
#سیاستمداران	3.34
#گناهکاران	3.18
#جنگید	3.1
#تابوت	2.96
#اشتباهات	2.92
#گناهان	2.88
#پنالتی	2.84
#معلول	2.82
#دروغ	2.6
#نابینا	2.58
#ترسیده	2.58
#شات	2.5
#دشمنان	2.44
#تصادف	2.32
#قربانیان	2.32
#سونامی	2.18
#میمیرد	2.08
#بمیر	1.74
#تروریسم	1.48
#تروریست	1.3
